<!DOCTYPE svg PUBLIC "-//W3C//DTD SVG 1.1//EN" "http://www.w3.org/Graphics/SVG/1.1/DTD/svg11.dtd">
<!-- Uploaded to: SVG Repo, www.svgrepo.com, Transformed by: SVG Repo Mixer Tools -->
<svg width="800px" height="800px" viewBox="0 0 24.00 24.00" fill="none" xmlns="http://www.w3.org/2000/svg" stroke="#ffffff" stroke-width="0.00024000000000000003">
<g id="SVGRepo_bgCarrier" stroke-width="0"/>
<g id="SVGRepo_tracerCarrier" stroke-linecap="round" stroke-linejoin="round"/>
<g id="SVGRepo_iconCarrier"> <path d="M18.5 3H16C15.7239 3 15.5 3.22386 15.5 3.5V3.55891L19 6.35891V3.5C19 3.22386 18.7762 3 18.5 3Z" fill="#000000"/> <path fill-rule="evenodd" clip-rule="evenodd" d="M10.75 9.5C10.75 8.80964 11.3097 8.25 12 8.25C12.6904 8.25 13.25 8.80964 13.25 9.5C13.25 10.1904 12.6904 10.75 12 10.75C11.3097 10.75 10.75 10.1904 10.75 9.5Z" fill="#000000"/> <path fill-rule="evenodd" clip-rule="evenodd" d="M20.75 10.9605L21.5315 11.5857C21.855 11.8444 22.3269 11.792 22.5857 11.4685C22.8444 11.1451 22.792 10.6731 22.4685 10.4143L14.3426 3.91362C12.9731 2.81796 11.027 2.81796 9.65742 3.91362L1.53151 10.4143C1.20806 10.6731 1.15562 11.1451 1.41438 11.4685C1.67313 11.792 2.1451 11.8444 2.46855 11.5857L3.25003 10.9605V21.25H2.00003C1.58581 21.25 1.25003 21.5858 1.25003 22C1.25003 22.4142 1.58581 22.75 2.00003 22.75H22C22.4142 22.75 22.75 22.4142 22.75 22C22.75 21.5858 22.4142 21.25 22 21.25H20.75V10.9605ZM9.25003 9.5C9.25003 7.98122 10.4812 6.75 12 6.75C13.5188 6.75 14.75 7.98122 14.75 9.5C14.75 11.0188 13.5188 12.25 12 12.25C10.4812 12.25 9.25003 11.0188 9.25003 9.5ZM12.0494 13.25C12.7143 13.25 13.2871 13.2499 13.7459 13.3116C14.2375 13.3777 14.7088 13.5268 15.091 13.909C15.4733 14.2913 15.6223 14.7625 15.6884 15.2542C15.7462 15.6842 15.7498 16.2146 15.75 16.827C15.75 16.8679 15.75 16.9091 15.75 16.9506L15.75 21.25H14.25V17C14.25 16.2717 14.2484 15.8009 14.2018 15.454C14.1581 15.1287 14.0875 15.0268 14.0304 14.9697C13.9733 14.9126 13.8713 14.842 13.546 14.7982C13.1991 14.7516 12.7283 14.75 12 14.75C11.2717 14.75 10.8009 14.7516 10.4541 14.7982C10.1288 14.842 10.0268 14.9126 9.9697 14.9697C9.9126 15.0268 9.84199 15.1287 9.79826 15.454C9.75162 15.8009 9.75003 16.2717 9.75003 17V21.25H8.25003L8.25003 16.9506C8.24999 16.2858 8.24996 15.7129 8.31163 15.2542C8.37773 14.7625 8.52679 14.2913 8.90904 13.909C9.29128 13.5268 9.76255 13.3777 10.2542 13.3116C10.7129 13.2499 11.2858 13.25 11.9507 13.25H12.0494Z" fill="#000000"/> <path fill-rule="evenodd" clip-rule="evenodd" d="M10.75 9.5C10.75 8.80964 11.3097 8.25 12 8.25C12.6904 8.25 13.25 8.80964 13.25 9.5C13.25 10.1904 12.6904 10.75 12 10.75C11.3097 10.75 10.75 10.1904 10.75 9.5Z" fill="#000000"/> </g>
</svg>